submission/alu.vcd
$date
	Fri Jun  1 20:38:23 2018
$end
$version
	Icarus Verilog
$end
$timescale
	1s
$end
$scope module testbench $end
$scope module myALU $end
$var wire 4 ! A [3:0] $end
$var wire 1 " ABar $end
$var wire 4 # AandB [3:0] $end
$var wire 4 $ AorB [3:0] $end
$var wire 4 % AplusB [3:0] $end
$var wire 4 & AxB [3:0] $end
$var wire 4 ' AxorB [3:0] $end
$var wire 4 ( B [3:0] $end
$var wire 1 ) BBar $end
$var wire 1 * EnA $end
$var wire 1 + EnB $end
$var wire 1 , L $end
$var wire 1 - M $end
$var wire 1 . N $end
$var wire 1 / P $end
$var wire 1 0 Q $end
$var wire 1 1 R $end
$var wire 4 2 S [3:0] $end
$var wire 4 3 afterEnA [3:0] $end
$var wire 4 4 afterEnB [3:0] $end
$var wire 1 5 cIn $end
$var wire 1 6 cOut $end
$var wire 4 7 inA [3:0] $end
$var wire 4 8 inB [3:0] $end
$scope module myEnA $end
$var wire 1 , L $end
$var wire 1 - M $end
$var wire 1 . N $end
$var wire 1 * enA $end
$var wire 1 9 notL $end
$var wire 1 : notM $end
$var wire 1 ; out1 $end
$upscope $end
$scope module myEnB $end
$var wire 1 , L $end
$var wire 1 - M $end
$var wire 1 . N $end
$var wire 1 + enB $end
$var wire 1 < notL $end
$var wire 1 = notM $end
$var wire 1 > notN $end
$var wire 1 ? out2 $end
$upscope $end
$scope module myABar $end
$var wire 1 " ABar $end
$var wire 1 , L $end
$var wire 1 - M $end
$var wire 1 . N $end
$var wire 1 @ notL $end
$var wire 1 A notM $end
$var wire 1 B notN $end
$upscope $end
$scope module myBBar $end
$var wire 1 ) BBar $end
$var wire 1 , L $end
$var wire 1 - M $end
$var wire 1 . N $end
$var wire 1 C notL $end
$var wire 1 D notN $end
$var wire 1 E out2 $end
$upscope $end
$scope module myCin $end
$var wire 1 , L $end
$var wire 1 - M $end
$var wire 1 . N $end
$var wire 1 5 cIn $end
$var wire 1 F notL $end
$var wire 1 G notN $end
$var wire 1 H out2 $end
$upscope $end
$scope module myAND1 $end
$var wire 1 * En $end
$var wire 4 I X [3:0] $end
$var wire 4 J Y [3:0] $end
$upscope $end
$scope module myAND2 $end
$var wire 1 + En $end
$var wire 4 K X [3:0] $end
$var wire 4 L Y [3:0] $end
$upscope $end
$scope module myXOR1 $end
$var wire 1 " En $end
$var wire 4 M X [3:0] $end
$var wire 4 N Y [3:0] $end
$upscope $end
$scope module myXOR2 $end
$var wire 1 ) En $end
$var wire 4 O X [3:0] $end
$var wire 4 P Y [3:0] $end
$upscope $end
$scope module myFullAdder $end
$var wire 4 Q AplusB [3:0] $end
$var wire 1 5 cIn $end
$var wire 1 6 cOut $end
$var wire 4 R inA [3:0] $end
$var wire 4 S inB [3:0] $end
$var wire 1 T w1 $end
$var wire 1 U w2 $end
$var wire 1 V w3 $end
$scope module add1 $end
$var wire 1 W A $end
$var wire 1 X B $end
$var wire 1 Y S $end
$var wire 1 5 cIn $end
$var wire 1 T cOut $end
$var wire 1 Z x $end
$var wire 1 [ y $end
$var wire 1 \ z $end
$scope module add1 $end
$var wire 1 W A $end
$var wire 1 X B $end
$var wire 1 [ S $end
$var wire 1 Z cOut $end
$upscope $end
$scope module add2 $end
$var wire 1 [ A $end
$var wire 1 5 B $end
$var wire 1 Y S $end
$var wire 1 \ cOut $end
$upscope $end
$upscope $end
$scope module add2 $end
$var wire 1 ] A $end
$var wire 1 ^ B $end
$var wire 1 _ S $end
$var wire 1 T cIn $end
$var wire 1 U cOut $end
$var wire 1 ` x $end
$var wire 1 a y $end
$var wire 1 b z $end
$scope module add1 $end
$var wire 1 ] A $end
$var wire 1 ^ B $end
$var wire 1 a S $end
$var wire 1 ` cOut $end
$upscope $end
$scope module add2 $end
$var wire 1 a A $end
$var wire 1 T B $end
$var wire 1 _ S $end
$var wire 1 b cOut $end
$upscope $end
$upscope $end
$scope module add3 $end
$var wire 1 c A $end
$var wire 1 d B $end
$var wire 1 e S $end
$var wire 1 U cIn $end
$var wire 1 V cOut $end
$var wire 1 f x $end
$var wire 1 g y $end
$var wire 1 h z $end
$scope module add1 $end
$var wire 1 c A $end
$var wire 1 d B $end
$var wire 1 g S $end
$var wire 1 f cOut $end
$upscope $end
$scope module add2 $end
$var wire 1 g A $end
$var wire 1 U B $end
$var wire 1 e S $end
$var wire 1 h cOut $end
$upscope $end
$upscope $end
$scope module add4 $end
$var wire 1 i A $end
$var wire 1 j B $end
$var wire 1 k S $end
$var wire 1 V cIn $end
$var wire 1 6 cOut $end
$var wire 1 l x $end
$var wire 1 m y $end
$var wire 1 n z $end
$scope module add1 $end
$var wire 1 i A $end
$var wire 1 j B $end
$var wire 1 m S $end
$var wire 1 l cOut $end
$upscope $end
$scope module add2 $end
$var wire 1 m A $end
$var wire 1 V B $end
$var wire 1 k S $end
$var wire 1 n cOut $end
$upscope $end
$upscope $end
$upscope $end
$scope module myAndAB $end
$var wire 4 o A [3:0] $end
$var wire 4 p B [3:0] $end
$var wire 4 q R [3:0] $end
$upscope $end
$scope module myOrAB $end
$var wire 4 r A [3:0] $end
$var wire 4 s B [3:0] $end
$var wire 4 t R [3:0] $end
$upscope $end
$scope module myAxB $end
$var wire 4 u A [3:0] $end
$var wire 4 v B [3:0] $end
$var wire 4 w R [3:0] $end
$var wire 4 x R2 [3:0] $end
$var wire 4 y S1 [3:0] $end
$var wire 4 z S2 [3:0] $end
$var wire 4 { S3 [3:0] $end
$var wire 4 | X0 [3:0] $end
$var wire 4 } X1 [3:0] $end
$var wire 4 ~ X2 [3:0] $end
$var wire 4 !" X3 [3:0] $end
$var wire 4 "" Y1 [3:0] $end
$var wire 4 #" Y2 [3:0] $end
$var wire 4 $" Y3 [3:0] $end
$var wire 1 %" cOut1 $end
$var wire 1 &" cOut2 $end
$var wire 1 '" cOut3 $end
$var wire 1 (" p0 $end
$var wire 1 )" p1 $end
$var wire 1 *" p2 $end
$var wire 1 +" p3 $end
$var wire 1 ," p4 $end
$var wire 1 -" p5 $end
$var wire 1 ." p6 $end
$var wire 1 /" p7 $end
$scope module myA0 $end
$var wire 1 0" En $end
$var wire 4 1" X [3:0] $end
$var wire 4 2" Y [3:0] $end
$upscope $end
$scope module myA1 $end
$var wire 1 3" En $end
$var wire 4 4" X [3:0] $end
$var wire 4 5" Y [3:0] $end
$upscope $end
$scope module fA0 $end
$var wire 4 6" AplusB [3:0] $end
$var wire 1 7" cIn $end
$var wire 1 %" cOut $end
$var wire 4 8" inA [3:0] $end
$var wire 4 9" inB [3:0] $end
$var wire 1 :" w1 $end
$var wire 1 ;" w2 $end
$var wire 1 <" w3 $end
$scope module add1 $end
$var wire 1 =" A $end
$var wire 1 >" B $end
$var wire 1 ?" S $end
$var wire 1 7" cIn $end
$var wire 1 :" cOut $end
$var wire 1 @" x $end
$var wire 1 A" y $end
$var wire 1 B" z $end
$scope module add1 $end
$var wire 1 =" A $end
$var wire 1 >" B $end
$var wire 1 A" S $end
$var wire 1 @" cOut $end
$upscope $end
$scope module add2 $end
$var wire 1 A" A $end
$var wire 1 7" B $end
$var wire 1 ?" S $end
$var wire 1 B" cOut $end
$upscope $end
$upscope $end
$scope module add2 $end
$var wire 1 C" A $end
$var wire 1 D" B $end
$var wire 1 E" S $end
$var wire 1 :" cIn $end
$var wire 1 ;" cOut $end
$var wire 1 F" x $end
$var wire 1 G" y $end
$var wire 1 H" z $end
$scope module add1 $end
$var wire 1 C" A $end
$var wire 1 D" B $end
$var wire 1 G" S $end
$var wire 1 F" cOut $end
$upscope $end
$scope module add2 $end
$var wire 1 G" A $end
$var wire 1 :" B $end
$var wire 1 E" S $end
$var wire 1 H" cOut $end
$upscope $end
$upscope $end
$scope module add3 $end
$var wire 1 I" A $end
$var wire 1 J" B $end
$var wire 1 K" S $end
$var wire 1 ;" cIn $end
$var wire 1 <" cOut $end
$var wire 1 L" x $end
$var wire 1 M" y $end
$var wire 1 N" z $end
$scope module add1 $end
$var wire 1 I" A $end
$var wire 1 J" B $end
$var wire 1 M" S $end
$var wire 1 L" cOut $end
$upscope $end
$scope module add2 $end
$var wire 1 M" A $end
$var wire 1 ;" B $end
$var wire 1 K" S $end
$var wire 1 N" cOut $end
$upscope $end
$upscope $end
$scope module add4 $end
$var wire 1 O" A $end
$var wire 1 P" B $end
$var wire 1 Q" S $end
$var wire 1 <" cIn $end
$var wire 1 %" cOut $end
$var wire 1 R" x $end
$var wire 1 S" y $end
$var wire 1 T" z $end
$scope module add1 $end
$var wire 1 O" A $end
$var wire 1 P" B $end
$var wire 1 S" S $end
$var wire 1 R" cOut $end
$upscope $end
$scope module add2 $end
$var wire 1 S" A $end
$var wire 1 <" B $end
$var wire 1 Q" S $end
$var wire 1 T" cOut $end
$upscope $end
$upscope $end
$upscope $end
$scope module myA2 $end
$var wire 1 U" En $end
$var wire 4 V" X [3:0] $end
$var wire 4 W" Y [3:0] $end
$upscope $end
$scope module fA1 $end
$var wire 4 X" AplusB [3:0] $end
$var wire 1 Y" cIn $end
$var wire 1 &" cOut $end
$var wire 4 Z" inA [3:0] $end
$var wire 4 [" inB [3:0] $end
$var wire 1 \" w1 $end
$var wire 1 ]" w2 $end
$var wire 1 ^" w3 $end
$scope module add1 $end
$var wire 1 _" A $end
$var wire 1 `" B $end
$var wire 1 a" S $end
$var wire 1 Y" cIn $end
$var wire 1 \" cOut $end
$var wire 1 b" x $end
$var wire 1 c" y $end
$var wire 1 d" z $end
$scope module add1 $end
$var wire 1 _" A $end
$var wire 1 `" B $end
$var wire 1 c" S $end
$var wire 1 b" cOut $end
$upscope $end
$scope module add2 $end
$var wire 1 c" A $end
$var wire 1 Y" B $end
$var wire 1 a" S $end
$var wire 1 d" cOut $end
$upscope $end
$upscope $end
$scope module add2 $end
$var wire 1 e" A $end
$var wire 1 f" B $end
$var wire 1 g" S $end
$var wire 1 \" cIn $end
$var wire 1 ]" cOut $end
$var wire 1 h" x $end
$var wire 1 i" y $end
$var wire 1 j" z $end
$scope module add1 $end
$var wire 1 e" A $end
$var wire 1 f" B $end
$var wire 1 i" S $end
$var wire 1 h" cOut $end
$upscope $end
$scope module add2 $end
$var wire 1 i" A $end
$var wire 1 \" B $end
$var wire 1 g" S $end
$var wire 1 j" cOut $end
$upscope $end
$upscope $end
$scope module add3 $end
$var wire 1 k" A $end
$var wire 1 l" B $end
$var wire 1 m" S $end
$var wire 1 ]" cIn $end
$var wire 1 ^" cOut $end
$var wire 1 n" x $end
$var wire 1 o" y $end
$var wire 1 p" z $end
$scope module add1 $end
$var wire 1 k" A $end
$var wire 1 l" B $end
$var wire 1 o" S $end
$var wire 1 n" cOut $end
$upscope $end
$scope module add2 $end
$var wire 1 o" A $end
$var wire 1 ]" B $end
$var wire 1 m" S $end
$var wire 1 p" cOut $end
$upscope $end
$upscope $end
$scope module add4 $end
$var wire 1 q" A $end
$var wire 1 r" B $end
$var wire 1 s" S $end
$var wire 1 ^" cIn $end
$var wire 1 &" cOut $end
$var wire 1 t" x $end
$var wire 1 u" y $end
$var wire 1 v" z $end
$scope module add1 $end
$var wire 1 q" A $end
$var wire 1 r" B $end
$var wire 1 u" S $end
$var wire 1 t" cOut $end
$upscope $end
$scope module add2 $end
$var wire 1 u" A $end
$var wire 1 ^" B $end
$var wire 1 s" S $end
$var wire 1 v" cOut $end
$upscope $end
$upscope $end
$upscope $end
$scope module myA3 $end
$var wire 1 w" En $end
$var wire 4 x" X [3:0] $end
$var wire 4 y" Y [3:0] $end
$upscope $end
$scope module fA2 $end
$var wire 4 z" AplusB [3:0] $end
$var wire 1 {" cIn $end
$var wire 1 '" cOut $end
$var wire 4 |" inA [3:0] $end
$var wire 4 }" inB [3:0] $end
$var wire 1 ~" w1 $end
$var wire 1 !# w2 $end
$var wire 1 "# w3 $end
$scope module add1 $end
$var wire 1 ## A $end
$var wire 1 $# B $end
$var wire 1 %# S $end
$var wire 1 {" cIn $end
$var wire 1 ~" cOut $end
$var wire 1 &# x $end
$var wire 1 '# y $end
$var wire 1 (# z $end
$scope module add1 $end
$var wire 1 ## A $end
$var wire 1 $# B $end
$var wire 1 '# S $end
$var wire 1 &# cOut $end
$upscope $end
$scope module add2 $end
$var wire 1 '# A $end
$var wire 1 {" B $end
$var wire 1 %# S $end
$var wire 1 (# cOut $end
$upscope $end
$upscope $end
$scope module add2 $end
$var wire 1 )# A $end
$var wire 1 *# B $end
$var wire 1 +# S $end
$var wire 1 ~" cIn $end
$var wire 1 !# cOut $end
$var wire 1 ,# x $end
$var wire 1 -# y $end
$var wire 1 .# z $end
$scope module add1 $end
$var wire 1 )# A $end
$var wire 1 *# B $end
$var wire 1 -# S $end
$var wire 1 ,# cOut $end
$upscope $end
$scope module add2 $end
$var wire 1 -# A $end
$var wire 1 ~" B $end
$var wire 1 +# S $end
$var wire 1 .# cOut $end
$upscope $end
$upscope $end
$scope module add3 $end
$var wire 1 /# A $end
$var wire 1 0# B $end
$var wire 1 1# S $end
$var wire 1 !# cIn $end
$var wire 1 "# cOut $end
$var wire 1 2# x $end
$var wire 1 3# y $end
$var wire 1 4# z $end
$scope module add1 $end
$var wire 1 /# A $end
$var wire 1 0# B $end
$var wire 1 3# S $end
$var wire 1 2# cOut $end
$upscope $end
$scope module add2 $end
$var wire 1 3# A $end
$var wire 1 !# B $end
$var wire 1 1# S $end
$var wire 1 4# cOut $end
$upscope $end
$upscope $end
$scope module add4 $end
$var wire 1 5# A $end
$var wire 1 6# B $end
$var wire 1 7# S $end
$var wire 1 "# cIn $end
$var wire 1 '" cOut $end
$var wire 1 8# x $end
$var wire 1 9# y $end
$var wire 1 :# z $end
$scope module add1 $end
$var wire 1 5# A $end
$var wire 1 6# B $end
$var wire 1 9# S $end
$var wire 1 8# cOut $end
$upscope $end
$scope module add2 $end
$var wire 1 9# A $end
$var wire 1 "# B $end
$var wire 1 7# S $end
$var wire 1 :# cOut $end
$upscope $end
$upscope $end
$upscope $end
$upscope $end
$scope module myAxorB $end
$var wire 4 ;# A [3:0] $end
$var wire 4 <# AxorB [3:0] $end
$var wire 4 =# B [3:0] $end
$upscope $end
$scope module myController $end
$var wire 1 , L $end
$var wire 1 - M $end
$var wire 1 . N $end
$var wire 1 / P $end
$var wire 1 0 Q $end
$var wire 1 1 R $end
$var wire 1 ># notN $end
$var wire 1 ?# xorMN $end
$upscope $end
$scope module myOutput $end
$var wire 4 @# AandB [3:0] $end
$var wire 4 A# AorB [3:0] $end
$var wire 4 B# AplusB [3:0] $end
$var wire 4 C# AxB [3:0] $end
$var wire 4 D# AxorB [3:0] $end
$var wire 1 / P $end
$var wire 1 0 Q $end
$var wire 1 1 R $end
$var wire 4 E# S [3:0] $end
$scope module f1 $end
$var wire 1 F# AandB $end
$var wire 1 G# AandB_out $end
$var wire 1 H# AorB $end
$var wire 1 I# AorB_out $end
$var wire 1 J# AplusB $end
$var wire 1 K# AplusB_out $end
$var wire 1 L# AxB $end
$var wire 1 M# AxB_out $end
$var wire 1 N# AxorB $end
$var wire 1 O# AxorB_out $end
$var wire 1 / P $end
$var wire 1 0 Q $end
$var wire 1 1 R $end
$var wire 1 P# S $end
$var wire 1 Q# pBar $end
$var wire 1 R# qBar $end
$var wire 1 S# rBar $end
$upscope $end
$scope module f2 $end
$var wire 1 T# AandB $end
$var wire 1 U# AandB_out $end
$var wire 1 V# AorB $end
$var wire 1 W# AorB_out $end
$var wire 1 X# AplusB $end
$var wire 1 Y# AplusB_out $end
$var wire 1 Z# AxB $end
$var wire 1 [# AxB_out $end
$var wire 1 \# AxorB $end
$var wire 1 ]# AxorB_out $end
$var wire 1 / P $end
$var wire 1 0 Q $end
$var wire 1 1 R $end
$var wire 1 ^# S $end
$var wire 1 _# pBar $end
$var wire 1 `# qBar $end
$var wire 1 a# rBar $end
$upscope $end
$scope module f3 $end
$var wire 1 b# AandB $end
$var wire 1 c# AandB_out $end
$var wire 1 d# AorB $end
$var wire 1 e# AorB_out $end
$var wire 1 f# AplusB $end
$var wire 1 g# AplusB_out $end
$var wire 1 h# AxB $end
$var wire 1 i# AxB_out $end
$var wire 1 j# AxorB $end
$var wire 1 k# AxorB_out $end
$var wire 1 / P $end
$var wire 1 0 Q $end
$var wire 1 1 R $end
$var wire 1 l# S $end
$var wire 1 m# pBar $end
$var wire 1 n# qBar $end
$var wire 1 o# rBar $end
$upscope $end
$scope module f4 $end
$var wire 1 p# AandB $end
$var wire 1 q# AandB_out $end
$var wire 1 r# AorB $end
$var wire 1 s# AorB_out $end
$var wire 1 t# AplusB $end
$var wire 1 u# AplusB_out $end
$var wire 1 v# AxB $end
$var wire 1 w# AxB_out $end
$var wire 1 x# AxorB $end
$var wire 1 y# AxorB_out $end
$var wire 1 / P $end
$var wire 1 0 Q $end
$var wire 1 1 R $end
$var wire 1 z# S $end
$var wire 1 {# pBar $end
$var wire 1 |# qBar $end
$var wire 1 }# rBar $end
$upscope $end
$upscope $end
$upscope $end
$upscope $end
$enddefinitions $end
#0
$dumpvars
0}#
1|#
1{#
0z#
0y#
0x#
0w#
0v#
0u#
0t#
0s#
0r#
0q#
0p#
0o#
1n#
1m#
0l#
0k#
0j#
0i#
0h#
0g#
0f#
0e#
0d#
0c#
0b#
0a#
1`#
1_#
0^#
0]#
0\#
0[#
0Z#
0Y#
0X#
0W#
0V#
0U#
0T#
0S#
1R#
1Q#
0P#
0O#
0N#
0M#
0L#
0K#
0J#
0I#
0H#
0G#
0F#
b0 E#
b0 D#
b0 C#
b0 B#
b0 A#
b0 @#
0?#
0>#
b0 =#
b0 <#
b0 ;#
0:#
09#
08#
07#
06#
05#
04#
03#
02#
01#
00#
0/#
0.#
0-#
0,#
0+#
0*#
0)#
0(#
0'#
0&#
0%#
0$#
0##
0"#
0!#
0~"
b0 }"
b0 |"
0{"
b0 z"
b0 y"
b0 x"
0w"
0v"
0u"
0t"
0s"
0r"
0q"
0p"
0o"
0n"
0m"
0l"
0k"
0j"
0i"
0h"
0g"
0f"
0e"
0d"
0c"
0b"
0a"
0`"
0_"
0^"
0]"
0\"
b0 ["
b0 Z"
0Y"
b0 X"
b0 W"
b0 V"
0U"
0T"
0S"
0R"
0Q"
0P"
0O"
0N"
0M"
0L"
0K"
0J"
0I"
0H"
0G"
0F"
0E"
0D"
0C"
0B"
0A"
0@"
0?"
0>"
0="
0<"
0;"
0:"
b0 9"
b0 8"
07"
b0 6"
b0 5"
b0 4"
03"
b0 2"
b0 1"
00"
0/"
0."
0-"
0,"
0+"
0*"
0)"
0("
0'"
0&"
0%"
b0 $"
b0 #"
b0 ""
b0 !"
b0 ~
b0 }
b0 |
b0 {
b0 z
b0 y
b0 x
b0 w
b0 v
b0 u
b0 t
b0 s
b0 r
b0 q
b0 p
b0 o
1n
1m
0l
0k
1j
0i
1h
1g
0f
0e
1d
0c
1b
1a
0`
0_
1^
0]
1\
1[
0Z
0Y
1X
0W
1V
1U
1T
b1111 S
b0 R
b0 Q
b1111 P
b0 O
b0 N
b0 M
b0 L
b0 K
b0 J
b0 I
0H
0G
0F
0E
0D
0C
0B
0A
0@
0?
0>
0=
0<
0;
0:
09
b1111 8
b0 7
16
15
b0 4
b0 3
b0 2
11
00
0/
1.
1-
1,
1+
1*
1)
b0 (
b0 '
b0 &
b0 %
b0 $
b0 #
0"
b0 !
$end
#10
06
1t#
0n
1k
0V
1f#
0h
1e
0U
1X#
0b
1_
0T
1J#
0\
1Y
b1111 %
b1111 Q
b1111 B#
0[
1P#
b1 2
b1 E#
0X
b1110 8
b1110 P
b1110 S
1O#
1H#
1N#
b1 4
b1 L
b1 O
b1 $
b1 t
b1 A#
b1 '
b1 <#
b1 D#
10"
b1 (
b1 K
b1 p
b1 s
b1 v
b1 =#
#20
1X#
1T
1_
b1111 %
b1111 Q
b1111 B#
1Z#
1Z
0a
1)"
b10 &
b10 w
b10 C#
1^#
b11 2
b11 E#
1W
1X
0^
1?"
b1 y
b1 6"
b1 7
b1 N
b1 R
b1101 8
b1101 P
b1101 S
1A"
1]#
1V#
1>"
1\#
b1 3
b1 J
b1 M
b10 4
b10 L
b10 O
b11 $
b11 t
b11 A#
b1 ""
b1 5"
b1 9"
b11 '
b11 <#
b11 D#
00"
13"
b1 !
b1 I
b1 o
b1 r
b1 u
b1 1"
b1 4"
b1 V"
b1 x"
b1 ;#
b10 (
b10 K
b10 p
b10 s
b10 v
b10 =#
#30
0J#
1\
0Y
b1110 %
b1110 Q
b1110 B#
0Z
1[
0P#
b10 2
b10 E#
0X
b1100 8
b1100 P
b1100 S
1L#
0O#
1F#
1("
b11 &
b11 w
b11 C#
0N#
b11 4
b11 L
b11 O
b1 #
b1 q
b1 @#
b1 |
b1 2"
b10 '
b10 <#
b10 D#
10"
b11 (
b11 K
b11 p
b11 s
b11 v
b11 =#
#40
1v#
1+"
1%#
b1 {
b1 z"
1f#
1'#
1U
1e
b1110 %
b1110 Q
b1110 B#
0Z#
1##
1`
0g
0)"
b1 !"
b1 |"
1l#
b110 2
b110 E#
0W
1]
1X
1^
0d
0?"
b0 y
b0 6"
1g"
b10 z
b10 X"
b10 7
b10 N
b10 R
b1011 8
b1011 P
b1011 S
0L#
0A"
1i"
1k#
0F#
0H#
1d#
0("
b1000 &
b1000 w
b1000 C#
0>"
1f"
1j#
b10 3
b10 J
b10 M
b100 4
b100 L
b100 O
b0 #
b0 q
b0 @#
b110 $
b110 t
b110 A#
b0 |
b0 2"
b0 ""
b0 5"
b0 9"
b10 #"
b10 W"
b10 ["
b110 '
b110 <#
b110 D#
00"
03"
1U"
b10 !
b10 I
b10 o
b10 r
b10 u
b10 1"
b10 4"
b10 V"
b10 x"
b10 ;#
b100 (
b100 K
b100 p
b100 s
b100 v
b100 =#
#50
0X#
0_
0T
1J#
1Z#
0\
1Y
b1101 %
b1101 Q
b1101 B#
1)"
b1010 &
b1010 w
b1010 C#
0[
1?"
b1 y
b1 6"
1P#
b111 2
b111 E#
0X
1A"
b1010 8
b1010 P
b1010 S
1="
1O#
1H#
b1 }
b1 8"
1N#
b101 4
b101 L
b101 O
b111 $
b111 t
b111 A#
b10 |
b10 2"
b111 '
b111 <#
b111 D#
10"
b101 (
b101 K
b101 p
b101 s
b101 v
b101 =#
#60
1,"
b1 x
1+#
0v#
1-#
0+"
1)#
0%#
b10 {
b10 z"
0'#
1m"
0##
0h"
1i"
1]"
b10 !"
b10 |"
0e"
1j"
0g"
1f#
1\"
1b
1e
0X#
0K"
1b"
0h#
1T
1U
0_
b1101 %
b1101 Q
b1101 B#
0;"
1Z#
1_"
0*"
1Z
0`
1a
0H"
1)"
b10 &
b10 w
b10 C#
b1 ~
b1 Z"
0^#
b101 2
b101 E#
1W
0a"
b100 z
b100 X"
1X
0^
0:"
1?"
1E"
b11 y
b11 6"
b11 7
b11 N
b11 R
0c"
b1001 8
b1001 P
b1001 S
0="
0@"
1A"
1G"
0]#
1`"
1T#
b0 }
b0 8"
1>"
1D"
0\#
b11 3
b11 J
b11 M
b11 #"
b11 W"
b11 ["
b110 4
b110 L
b110 O
b10 #
b10 q
b10 @#
b0 |
b0 2"
b11 ""
b11 5"
b11 9"
b101 '
b101 <#
b101 D#
00"
13"
b11 !
b11 I
b11 o
b11 r
b11 u
b11 1"
b11 4"
b11 V"
b11 x"
b11 ;#
b110 (
b110 K
b110 p
b110 s
b110 v
b110 =#
#70
0v#
0+"
0%#
b10 {
b10 z"
0'#
0##
b10 !"
b10 |"
1h#
1h"
0i"
0j"
0g"
1*"
1e"
0\"
1a"
b101 z
b101 X"
0b"
1c"
1K"
0_"
0J#
1;"
b10 ~
b10 Z"
0Z#
1\
0Y
b1100 %
b1100 Q
b1100 B#
1H"
0E"
0)"
0Z
1[
1:"
0?"
b100 y
b100 6"
0P#
b100 2
b100 E#
0X
1@"
0A"
b1000 8
b1000 P
b1000 S
1L#
1="
0O#
1F#
1("
b101 &
b101 w
b101 C#
b1 }
b1 8"
0N#
b111 4
b111 L
b111 O
b11 #
b11 q
b11 @#
b11 |
b11 2"
b100 '
b100 <#
b100 D#
10"
b111 (
b111 K
b111 p
b111 s
b111 v
b111 =#
#80
0,"
0v#
0+#
0+"
0e"
0-#
0%#
1t#
0)#
0'#
1V
1k
b1100 %
b1100 Q
b1100 B#
0Z#
0K"
0_"
0h#
0##
1f
0m
0)"
0;"
b0 ~
b0 Z"
0*"
0m"
b0 !"
b0 |"
1-"
b10 x
1z#
b1100 2
b1100 E#
0W
0]
1c
1X
1^
1d
0j
0:"
0?"
0H"
0E"
b0 y
b0 6"
0a"
0]"
0g"
b0 z
b0 X"
11#
b100 {
b100 z"
b100 7
b100 N
b100 R
b111 8
b111 P
b111 S
0L#
0="
0@"
0A"
0G"
0c"
0h"
0i"
13#
1y#
0F#
0T#
0H#
0V#
1r#
0("
b0 &
b0 w
b0 C#
b0 }
b0 8"
0>"
0D"
0`"
0f"
10#
1x#
b100 3
b100 J
b100 M
b1000 4
b1000 L
b1000 O
b0 #
b0 q
b0 @#
b1100 $
b1100 t
b1100 A#
b0 |
b0 2"
b0 ""
b0 5"
b0 9"
b0 #"
b0 W"
b0 ["
b100 $"
b100 y"
b100 }"
b1100 '
b1100 <#
b1100 D#
00"
03"
0U"
1w"
b100 !
b100 I
b100 o
b100 r
b100 u
b100 1"
b100 4"
b100 V"
b100 x"
b100 ;#
b1000 (
b1000 K
b1000 p
b1000 s
b1000 v
b1000 =#
#90
0f#
1h#
0e
1*"
b100 &
b100 w
b100 C#
0U
1X#
1a"
b1 z
b1 X"
0b
1_
1c"
0T
1J#
1_"
0\
1Y
b1011 %
b1011 Q
b1011 B#
b1 ~
b1 Z"
0[
1E"
b10 y
b10 6"
1P#
b1101 2
b1101 E#
0X
1G"
b110 8
b110 P
b110 S
1C"
1O#
1H#
b10 }
b10 8"
1N#
b1001 4
b1001 L
b1001 O
b1101 $
b1101 t
b1101 A#
b100 |
b100 2"
b1101 '
b1101 <#
b1101 D#
10"
b1001 (
b1001 K
b1001 p
b1001 s
b1001 v
b1001 =#
#100
1,"
b11 x
1+#
1~"
0h#
1&#
0*"
1##
0a"
b1 !"
b1 |"
0c"
1g"
b10 z
b10 X"
1X#
0_"
1i"
0v#
1T
1_
b1011 %
b1011 Q
b1011 B#
1Z#
1e"
0+"
1Z
0a
0E"
1)"
b10 &
b10 w
b10 C#
b10 ~
b10 Z"
1^#
b1111 2
b1111 E#
1W
0%#
b110 {
b110 z"
1X
0^
0G"
1?"
1K"
b101 y
b101 6"
b101 7
b101 N
b101 R
0'#
b101 8
b101 P
b101 S
0C"
1A"
1M"
1]#
1$#
1V#
b0 }
b0 8"
1>"
1J"
1\#
b101 3
b101 J
b101 M
b101 $"
b101 y"
b101 }"
b1010 4
b1010 L
b1010 O
b1111 $
b1111 t
b1111 A#
b0 |
b0 2"
b101 ""
b101 5"
b101 9"
b1111 '
b1111 <#
b1111 D#
00"
13"
b101 !
b101 I
b101 o
b101 r
b101 u
b101 1"
b101 4"
b101 V"
b101 x"
b101 ;#
b1010 (
b1010 K
b1010 p
b1010 s
b1010 v
b1010 =#
#110
1h#
1*"
1a"
b11 z
b11 X"
1c"
0J#
1_"
1\
0Y
b1010 %
b1010 Q
b1010 B#
b11 ~
b11 Z"
0Z
1[
1E"
b111 y
b111 6"
0P#
b1110 2
b1110 E#
0X
1G"
b100 8
b100 P
b100 S
1L#
1C"
0O#
1F#
1("
b111 &
b111 w
b111 C#
b10 }
b10 8"
0N#
b1011 4
b1011 L
b1011 O
b1 #
b1 q
b1 @#
b101 |
b101 2"
b1110 '
b1110 <#
b1110 D#
10"
b1011 (
b1011 K
b1011 p
b1011 s
b1011 v
b1011 =#
#120
0h#
0*"
02#
13#
1."
0a"
0/#
17#
1t#
0c"
1"#
0-"
1h
1k
0f#
0_"
0s"
1,#
1v#
14#
01#
1U
1V
0e
b1010 %
b1010 Q
b1010 B#
0Z#
0e"
0^"
1##
1)#
1+"
1!#
0,"
b100 x
1`
0f
1g
0E"
0)"
b0 ~
b0 Z"
0p"
b11 !"
b11 |"
0l#
b1010 2
b1010 E#
0W
1]
0~"
1%#
0.#
0+#
b1001 {
b1001 z"
1X
1^
0d
0G"
0?"
0K"
b0 y
b0 6"
0]"
1g"
1m"
b110 z
b110 X"
b110 7
b110 N
b110 R
0&#
1'#
0-#
b11 8
b11 P
b11 S
0L#
0C"
0A"
0M"
0h"
1i"
1o"
0k#
0$#
1*#
0F#
1b#
0H#
0("
b1000 &
b1000 w
b1000 C#
b0 }
b0 8"
0>"
0J"
1f"
1l"
0j#
b110 3
b110 J
b110 M
b110 $"
b110 y"
b110 }"
b1100 4
b1100 L
b1100 O
b100 #
b100 q
b100 @#
b1110 $
b1110 t
b1110 A#
b0 |
b0 2"
b0 ""
b0 5"
b0 9"
b110 #"
b110 W"
b110 ["
b1010 '
b1010 <#
b1010 D#
00"
03"
1U"
b110 !
b110 I
b110 o
b110 r
b110 u
b110 1"
b110 4"
b110 V"
b110 x"
b110 ;#
b1100 (
b1100 K
b1100 p
b1100 s
b1100 v
b1100 =#
#130
1h#
1*"
0X#
1a"
b111 z
b111 X"
0_
1c"
0T
1J#
1Z#
1_"
0\
1Y
b1001 %
b1001 Q
b1001 B#
1)"
b1110 &
b1110 w
b1110 C#
b1 ~
b1 Z"
0[
1?"
1E"
b11 y
b11 6"
1P#
b1011 2
b1011 E#
0X
1A"
1G"
b10 8
b10 P
b10 S
1="
1C"
1O#
1H#
b11 }
b11 8"
1N#
b1101 4
b1101 L
b1101 O
b1111 $
b1111 t
b1111 A#
b110 |
b110 2"
b1011 '
b1011 <#
b1011 D#
10"
b1101 (
b1101 K
b1101 p
b1101 s
b1101 v
b1101 =#
